{
  "annotations": {
    "list": [

    ]
  },
  "editable": true,
  "hideControls": false,
  "id": null,
  "links": [
    {
      "asDropdown": true,
      "icon": "external link",
      "keepTime": true,
      "tags": [
        "controller"
      ],
      "title": "Controllers",
      "type": "dashboards"
    }
  ],
  "originalTitle": "Rails Cache Overview",
  "refresh": false,
  "rows": [
    {
      "collapse": false,
      "editable": true,
      "height": "250px",
      "panels": [
        {
          "aliasColors": {
            "95th Percentile": "#9AC48A",
            "99th Percentile": "#E24D42"
          },
          "bars": false,
          "datasource": "$database",
          "editable": true,
          "error": false,
          "fill": 0,
          "grid": {
            "threshold1": null,
            "threshold1Color": "rgba(216, 200, 27, 0.27)",
            "threshold2": null,
            "threshold2Color": "rgba(234, 112, 112, 0.22)"
          },
          "id": 8,
          "interval": "1m",
          "legend": {
            "avg": false,
            "current": false,
            "max": false,
            "min": false,
            "show": true,
            "total": false,
            "values": false
          },
          "lines": true,
          "linewidth": 1,
          "links": [

          ],
          "nullPointMode": "null as zero",
          "percentage": false,
          "pointradius": 5,
          "points": false,
          "renderer": "flot",
          "seriesOverrides": [

          ],
          "span": 12,
          "stack": false,
          "steppedLine": false,
          "targets": [
            {
              "alias": "$col",
              "dsType": "influxdb",
              "groupBy": [
                {
                  "interval": "auto",
                  "params": [
                    "auto"
                  ],
                  "type": "time"
                }
              ],
              "measurement": "gitlab.transaction",
              "policy": "default",
              "query": "SELECT \"cache_duration_95th\" AS \"95th Percentile\", \"cache_duration_99th\" as \"99th Percentile\", \"cache_duration_mean\" AS \"Mean\" FROM downsampled.\"[[process_type]]_transaction_timings_overall\" WHERE $timeFilter",
              "rawQuery": true,
              "refId": "A",
              "resultFormat": "time_series",
              "select": [
                [
                  {
                    "params": [
                      "value"
                    ],
                    "type": "field"
                  },
                  {
                    "params": [

                    ],
                    "type": "mean"
                  }
                ]
              ],
              "tags": [

              ]
            }
          ],
          "timeFrom": null,
          "timeShift": null,
          "title": "Total Cache Timings",
          "tooltip": {
            "msResolution": false,
            "shared": true,
            "value_type": "cumulative"
          },
          "type": "graph",
          "xaxis": {
            "show": true
          },
          "yaxes": [
            {
              "format": "ms",
              "logBase": 1,
              "max": null,
              "min": null,
              "show": true
            },
            {
              "format": "short",
              "logBase": 1,
              "max": null,
              "min": null,
              "show": true
            }
          ]
        }
      ],
      "title": "New row"
    },
    {
      "collapse": false,
      "editable": true,
      "height": "250px",
      "panels": [
        {
          "aliasColors": {
            "95th Percentile": "#9AC48A",
            "99th Percentile": "#E24D42"
          },
          "bars": false,
          "datasource": "$database",
          "editable": true,
          "error": false,
          "fill": 0,
          "grid": {
            "threshold1": null,
            "threshold1Color": "rgba(216, 200, 27, 0.27)",
            "threshold2": null,
            "threshold2Color": "rgba(234, 112, 112, 0.22)"
          },
          "id": 9,
          "interval": "1m",
          "legend": {
            "avg": false,
            "current": false,
            "max": false,
            "min": false,
            "show": true,
            "total": false,
            "values": false
          },
          "lines": true,
          "linewidth": 1,
          "links": [

          ],
          "nullPointMode": "null as zero",
          "percentage": false,
          "pointradius": 5,
          "points": false,
          "renderer": "flot",
          "seriesOverrides": [

          ],
          "span": 6,
          "stack": false,
          "steppedLine": false,
          "targets": [
            {
              "alias": "$col",
              "dsType": "influxdb",
              "groupBy": [
                {
                  "interval": "auto",
                  "params": [
                    "auto"
                  ],
                  "type": "time"
                }
              ],
              "measurement": "gitlab.transaction",
              "policy": "default",
              "query": "SELECT \"cache_read_duration_95th\" AS \"95th Percentile\", \"cache_read_duration_99th\" as \"99th Percentile\", \"cache_read_duration_mean\" AS \"Mean\" FROM downsampled.\"[[process_type]]_transaction_timings_overall\" WHERE $timeFilter",
              "rawQuery": true,
              "refId": "A",
              "resultFormat": "time_series",
              "select": [
                [
                  {
                    "params": [
                      "value"
                    ],
                    "type": "field"
                  },
                  {
                    "params": [

                    ],
                    "type": "mean"
                  }
                ]
              ],
              "tags": [

              ]
            }
          ],
          "timeFrom": null,
          "timeShift": null,
          "title": "Cache Read Timings",
          "tooltip": {
            "msResolution": false,
            "shared": true,
            "value_type": "cumulative"
          },
          "type": "graph",
          "xaxis": {
            "show": true
          },
          "yaxes": [
            {
              "format": "ms",
              "logBase": 1,
              "max": null,
              "min": null,
              "show": true
            },
            {
              "format": "short",
              "logBase": 1,
              "max": null,
              "min": null,
              "show": true
            }
          ]
        },
        {
          "aliasColors": {
            "95th Percentile": "#9AC48A",
            "99th Percentile": "#E24D42"
          },
          "bars": false,
          "datasource": "$database",
          "editable": true,
          "error": false,
          "fill": 0,
          "grid": {
            "threshold1": null,
            "threshold1Color": "rgba(216, 200, 27, 0.27)",
            "threshold2": null,
            "threshold2Color": "rgba(234, 112, 112, 0.22)"
          },
          "id": 10,
          "interval": "1m",
          "legend": {
            "avg": false,
            "current": false,
            "max": false,
            "min": false,
            "show": true,
            "total": false,
            "values": false
          },
          "lines": true,
          "linewidth": 1,
          "links": [

          ],
          "nullPointMode": "null as zero",
          "percentage": false,
          "pointradius": 5,
          "points": false,
          "renderer": "flot",
          "seriesOverrides": [

          ],
          "span": 6,
          "stack": false,
          "steppedLine": false,
          "targets": [
            {
              "alias": "$col",
              "dsType": "influxdb",
              "groupBy": [
                {
                  "interval": "auto",
                  "params": [
                    "auto"
                  ],
                  "type": "time"
                }
              ],
              "measurement": "gitlab.transaction",
              "policy": "default",
              "query": "SELECT \"cache_write_duration_95th\" AS \"95th Percentile\", \"cache_write_duration_99th\" as \"99th Percentile\", \"cache_write_duration_mean\" AS \"Mean\" FROM downsampled.\"[[process_type]]_transaction_timings_overall\" WHERE $timeFilter",
              "rawQuery": true,
              "refId": "A",
              "resultFormat": "time_series",
              "select": [
                [
                  {
                    "params": [
                      "value"
                    ],
                    "type": "field"
                  },
                  {
                    "params": [

                    ],
                    "type": "mean"
                  }
                ]
              ],
              "tags": [

              ]
            }
          ],
          "timeFrom": null,
          "timeShift": null,
          "title": "Cache Write Timings",
          "tooltip": {
            "msResolution": false,
            "shared": true,
            "value_type": "cumulative"
          },
          "type": "graph",
          "xaxis": {
            "show": true
          },
          "yaxes": [
            {
              "format": "ms",
              "logBase": 1,
              "max": null,
              "min": null,
              "show": true
            },
            {
              "format": "short",
              "logBase": 1,
              "max": null,
              "min": null,
              "show": true
            }
          ]
        },
        {
          "aliasColors": {
            "95th Percentile": "#9AC48A",
            "99th Percentile": "#E24D42"
          },
          "bars": false,
          "datasource": "$database",
          "editable": true,
          "error": false,
          "fill": 0,
          "grid": {
            "threshold1": null,
            "threshold1Color": "rgba(216, 200, 27, 0.27)",
            "threshold2": null,
            "threshold2Color": "rgba(234, 112, 112, 0.22)"
          },
          "id": 11,
          "interval": "1m",
          "legend": {
            "avg": false,
            "current": false,
            "max": false,
            "min": false,
            "show": true,
            "total": false,
            "values": false
          },
          "lines": true,
          "linewidth": 1,
          "links": [

          ],
          "nullPointMode": "null as zero",
          "percentage": false,
          "pointradius": 5,
          "points": false,
          "renderer": "flot",
          "seriesOverrides": [

          ],
          "span": 6,
          "stack": false,
          "steppedLine": false,
          "targets": [
            {
              "alias": "$col",
              "dsType": "influxdb",
              "groupBy": [
                {
                  "interval": "auto",
                  "params": [
                    "auto"
                  ],
                  "type": "time"
                }
              ],
              "measurement": "gitlab.transaction",
              "policy": "default",
              "query": "SELECT \"cache_delete_duration_95th\" AS \"95th Percentile\", \"cache_delete_duration_99th\" as \"99th Percentile\", \"cache_delete_duration_mean\" AS \"Mean\" FROM downsampled.\"[[process_type]]_transaction_timings_overall\" WHERE $timeFilter",
              "rawQuery": true,
              "refId": "A",
              "resultFormat": "time_series",
              "select": [
                [
                  {
                    "params": [
                      "value"
                    ],
                    "type": "field"
                  },
                  {
                    "params": [

                    ],
                    "type": "mean"
                  }
                ]
              ],
              "tags": [

              ]
            }
          ],
          "timeFrom": null,
          "timeShift": null,
          "title": "Cache Delete Timings",
          "tooltip": {
            "msResolution": false,
            "shared": true,
            "value_type": "cumulative"
          },
          "type": "graph",
          "xaxis": {
            "show": true
          },
          "yaxes": [
            {
              "format": "ms",
              "logBase": 1,
              "max": null,
              "min": null,
              "show": true
            },
            {
              "format": "short",
              "logBase": 1,
              "max": null,
              "min": null,
              "show": true
            }
          ]
        },
        {
          "aliasColors": {
            "95th Percentile": "#9AC48A",
            "99th Percentile": "#E24D42"
          },
          "bars": false,
          "datasource": "$database",
          "editable": true,
          "error": false,
          "fill": 0,
          "grid": {
            "threshold1": null,
            "threshold1Color": "rgba(216, 200, 27, 0.27)",
            "threshold2": null,
            "threshold2Color": "rgba(234, 112, 112, 0.22)"
          },
          "id": 12,
          "interval": "1m",
          "legend": {
            "avg": false,
            "current": false,
            "max": false,
            "min": false,
            "show": true,
            "total": false,
            "values": false
          },
          "lines": true,
          "linewidth": 1,
          "links": [

          ],
          "nullPointMode": "null as zero",
          "percentage": false,
          "pointradius": 5,
          "points": false,
          "renderer": "flot",
          "seriesOverrides": [

          ],
          "span": 6,
          "stack": false,
          "steppedLine": false,
          "targets": [
            {
              "alias": "$col",
              "dsType": "influxdb",
              "groupBy": [
                {
                  "interval": "auto",
                  "params": [
                    "auto"
                  ],
                  "type": "time"
                }
              ],
              "measurement": "gitlab.transaction",
              "policy": "default",
              "query": "SELECT \"cache_exists_duration_95th\" AS \"95th Percentile\", \"cache_exists_duration_99th\" as \"99th Percentile\", \"cache_exists_duration_mean\" AS \"Mean\" FROM downsampled.\"[[process_type]]_transaction_timings_overall\" WHERE $timeFilter",
              "rawQuery": true,
              "refId": "A",
              "resultFormat": "time_series",
              "select": [
                [
                  {
                    "params": [
                      "value"
                    ],
                    "type": "field"
                  },
                  {
                    "params": [

                    ],
                    "type": "mean"
                  }
                ]
              ],
              "tags": [

              ]
            }
          ],
          "timeFrom": null,
          "timeShift": null,
          "title": "Cache Exists Timings",
          "tooltip": {
            "msResolution": false,
            "shared": true,
            "value_type": "cumulative"
          },
          "type": "graph",
          "xaxis": {
            "show": true
          },
          "yaxes": [
            {
              "format": "ms",
              "logBase": 1,
              "max": null,
              "min": null,
              "show": true
            },
            {
              "format": "short",
              "logBase": 1,
              "max": null,
              "min": null,
              "show": true
            }
          ]
        },
        {
          "aliasColors": {
            "95th Percentile": "#9AC48A",
            "99th Percentile": "#E24D42"
          },
          "bars": false,
          "datasource": "$database",
          "editable": true,
          "error": false,
          "fill": 0,
          "grid": {
            "threshold1": null,
            "threshold1Color": "rgba(216, 200, 27, 0.27)",
            "threshold2": null,
            "threshold2Color": "rgba(234, 112, 112, 0.22)"
          },
          "id": 13,
          "interval": "1m",
          "legend": {
            "avg": false,
            "current": false,
            "max": false,
            "min": false,
            "show": true,
            "total": false,
            "values": false
          },
          "lines": true,
          "linewidth": 1,
          "links": [

          ],
          "nullPointMode": "null as zero",
          "percentage": false,
          "pointradius": 5,
          "points": false,
          "renderer": "flot",
          "seriesOverrides": [

          ],
          "span": 12,
          "stack": false,
          "steppedLine": false,
          "targets": [
            {
              "alias": "$col",
              "dsType": "influxdb",
              "groupBy": [
                {
                  "interval": "auto",
                  "params": [
                    "auto"
                  ],
                  "type": "time"
                }
              ],
              "measurement": "gitlab.transaction",
              "policy": "default",
              "query": "SELECT \"cache_read_hit_count_mean\" AS \"Hit mean\", \"cache_read_miss_count_mean\" AS \"Miss mean\" FROM downsampled.\"[[process_type]]_transaction_cache_counts_overall\" WHERE $timeFilter",
              "rawQuery": true,
              "refId": "A",
              "resultFormat": "time_series",
              "select": [
                [
                  {
                    "params": [
                      "value"
                    ],
                    "type": "field"
                  },
                  {
                    "params": [

                    ],
                    "type": "mean"
                  }
                ]
              ],
              "tags": [

              ]
            },
            {
              "alias": "$col",
              "dsType": "influxdb",
              "groupBy": [
                {
                  "interval": "auto",
                  "params": [
                    "auto"
                  ],
                  "type": "time"
                }
              ],
              "hide": true,
              "measurement": "gitlab.transaction",
              "policy": "default",
              "query": "SELECT \"cache_read_hit_count_max\" AS \"Hit max\", \"cache_read_hit_count_99th\" AS \"Hit 99th\", \"cache_read_hit_count_95th\" AS \"Hit 95th\", \"cache_read_miss_count_max\" AS \"Miss max\", \"cache_read_miss_count_99th\" AS \"Miss 99th\", \"cache_read_miss_count_95th\" AS \"Miss 95th\" FROM downsampled.\"[[process_type]]_transaction_cache_counts_overall\" WHERE $timeFilter",
              "rawQuery": true,
              "refId": "B",
              "resultFormat": "time_series",
              "select": [
                [
                  {
                    "params": [
                      "value"
                    ],
                    "type": "field"
                  },
                  {
                    "params": [

                    ],
                    "type": "mean"
                  }
                ]
              ],
              "tags": [

              ]
            }
          ],
          "timeFrom": null,
          "timeShift": null,
          "title": "Cache Read Hits/Misses",
          "tooltip": {
            "msResolution": false,
            "shared": true,
            "value_type": "cumulative"
          },
          "type": "graph",
          "xaxis": {
            "show": true
          },
          "yaxes": [
            {
              "format": "none",
              "logBase": 1,
              "max": null,
              "min": null,
              "show": true
            },
            {
              "format": "short",
              "logBase": 1,
              "max": null,
              "min": null,
              "show": true
            }
          ]
        }
      ],
      "title": "New row"
    }
  ],
  "schemaVersion": 12,
  "sharedCrosshair": false,
  "style": "dark",
  "tags": [
    "cache"
  ],
  "templating": {
    "list": [
      {
        "allFormat": "regex values",
        "current": {
          "tags": [

          ],
          "text": "rails",
          "value": "rails"
        },
        "datasource": null,
        "hide": 0,
        "includeAll": false,
        "label": "Process Type",
        "multi": false,
        "multiFormat": "glob",
        "name": "process_type",
        "options": [
          {
            "selected": true,
            "text": "rails",
            "value": "rails"
          },
          {
            "selected": false,
            "text": "sidekiq",
            "value": "sidekiq"
          },
          {
            "selected": false,
            "text": "grape",
            "value": "grape"
          }
        ],
        "query": "rails,sidekiq,grape",
        "refresh": 0,
        "type": "custom"
      },
      {
        "current": {
          "tags": [

          ],
          "text": "Production",
          "value": "Production"
        },
        "datasource": null,
        "hide": 0,
        "includeAll": false,
        "label": "Database",
        "multi": false,
        "name": "database",
        "options": [
          {
            "selected": false,
            "text": "InfluxDB Internal",
            "value": "InfluxDB Internal"
          },
          {
            "selected": true,
            "text": "Production",
            "value": "Production"
          },
          {
            "selected": false,
            "text": "Staging",
            "value": "Staging"
          }
        ],
        "query": "influxdb",
        "refresh": 1,
        "regex": "",
        "type": "datasource"
      }
    ]
  },
  "time": {
    "from": "now-6h",
    "to": "now"
  },
  "timepicker": {
    "now": true,
    "refresh_intervals": [
      "5s",
      "10s",
      "30s",
      "1m",
      "5m",
      "15m",
      "30m",
      "1h",
      "2h",
      "1d"
    ],
    "time_options": [
      "5m",
      "15m",
      "1h",
      "6h",
      "12h",
      "24h",
      "2d",
      "7d",
      "30d"
    ]
  },
  "timezone": "utc",
  "title": "Rails Cache Overview",
  "version": 1
}